Choose a Pass,Name (First),Name (Last),E-mail,Affiliation (ie. Media, Band, Producer)
Full Pass (March 7-16) - $40|40,Haley,Conlin,fieldofvintage@gmail.com,Media
Full Pass (March 7-16) - $40|40,Michelle,Wilson,mat634-sxsw@yahoo.com,Media
Full Pass (March 7-16) - $40|40,Terrance,Tinsley,terrancejt89@yahoo.com,Media
Full Pass (March 7-16) - $40|40,Jason,Katzer,rsvpster.com@katzr.com,Baller
Full Pass (March 7-16) - $40|40,Frank,Worsley,f.worsle.y@gmail.com,Media
Full Pass (March 7-16) - $40|40,Fola,badejo,sxfb25@gmail.com,Media
Full Pass (March 7-16) - $40|40,Vanessa,Trejo,vanessa.d.trejo@gmail.com,Media
Full Pass (March 7-16) - $40|40,Tyler,Durman,durman.tyler@gmail.com,Marketing
Full Pass (March 7-16) - $40|40,Akil,Franklin,akil.franklin@gmail.com,Media
Full Pass (March 7-16) - $40|40,Daniel,Meagher,D.meagher@live.com,Media
Full Pass (March 7-16) - $40|40,Shonique,Freeman,Hello.shonique@yahoo.com,Media
Full Pass (March 7-16) - $40|40,Kristen,Jarvis,Kristenj125@gmail.com,Media
Full Pass (March 7-16) - $40|40,Kasey,Norris,kaseyenorrisother@gmail.com,Media
Full Pass (March 7-16) - $40|40,Ty,Fiebig,tyrsvpster@gmail.com,Media
Full Pass (March 7-16) - $40|40,Jon,Burkett,jonrsvpster@gmail.com,Media
Full Pass (March 7-16) - $40|40,Kenneth,Lopez,Blkcardken@gmail.com,Dirty south radio
Full Pass (March 7-16) - $40|40,Linda,Thompson,plmlinda@yahoo.com,sxsw
Full Pass (March 7-16) - $40|40,Lisa,Bowen,boatmanbowen@yahoo.com,sxsw
Full Pass (March 7-16) - $40|40,Stephanie,Cairns,scairns0912@gmail.com,Fan
Full Pass (March 7-16) - $40|40,Danielle,Digrandi,danielle.digrandi@gmail.com,Fan
Full Pass (March 7-16) - $40|40,Dave,Haggstrom,dhaggstromsxsw@gmail.com,Media
Full Pass (March 7-16) - $40|40,Jason,Poteet,jasonrkpoteet@gmail.com,Media
Full Pass (March 7-16) - $40|40,Kunaal,Arya,kunaalsxsw@gmail.com,Media
Full Pass (March 7-16) - $40|40,Chad,Kimbell,Chadsxsw@gmail.com,Media
Full Pass (March 7-16) - $40|40,Ashley,Kimbell,Ashleyksxsw@gmail.com,Media
Full Pass (March 7-16) - $40|40,Ami,Cohen,apolloraze@gmail.com,Lionsgate
Full Pass (March 7-16) - $40|40,sarah,hammond,sarahrainold2@gmail.com,Media
Full Pass (March 7-16) - $40|40,Sean,O'hara,sarahrainold2@gmail.com,Media
Full Pass (March 7-16) - $40|40,Darby,Sims,darbyjustice@gmail.com,Media
Full Pass (March 7-16) - $40|40,Nick,Schubert,nickschubes@gmail.com,Boy Blue
Full Pass (March 7-16) - $40|40,Megan,McGrath,Megmcg.1@gmail.com,Media
Full Pass (March 7-16) - $40|40,Shellie,Vega,Shellievega2@gmail.com,Media
Full Pass (March 7-16) - $40|40,Hollis,Schade,hollisschade@hotmail.com,Austinite
Full Pass (March 7-16) - $40|40,Sarah,Boice,silentdisco11@gmail.com,Media
Full Pass (March 7-16) - $40|40,Sarah,Griffith,SGSXSW@gmail.com,SXSW
Full Pass (March 7-16) - $40|40,Victor,Solares,SXSWVictor@gmail.com,UX Developer
Full Pass (March 7-16) - $40|40,Spencer,Moore,sxsw@cobraspence.com,Media
Full Pass (March 7-16) - $40|40,AMANDA,DE LA OSSA,AMANDADE2626@GMAIL.COM,Media
Full Pass (March 7-16) - $40|40,James,Trumbly,sxsw2014@hmgcreative.com,Media
Full Pass (March 7-16) - $40|40,Eddie,Santos,esantos_satx@yahoo.com,Media
Full Pass (March 7-16) - $40|40,Jeremy,Kandah,jkandah@gmail.com,Media
Full Pass (March 7-16) - $40|40,Jamie,Hawkins,jammieh2@yahoo.com,Media
Full Pass (March 7-16) - $40|40,Rachel,Gorey,rachelgorey@gmail.com,Media
Full Pass (March 7-16) - $40|40,Brenna,Holasek,brennaholasek@ou.edu,Media
Full Pass (March 7-16) - $40|40,Jessica,Guro,jessguro@gmail.com,Oracle
Full Pass (March 7-16) - $40|40,Yash,Patel,patel.b.yash@gmail.com,Oracle
Full Pass (March 7-16) - $40|40,Chris,White,boomdizzle555@gmail.com,Media
Full Pass (March 7-16) - $40|40,Thomas,McNash,tmcnashsxsw@gmail.com,Media
Full Pass (March 7-16) - $40|40,jackie,rodriguez,jaxrdrgz@gmail.com,Media
Full Pass (March 7-16) - $40|40,chris,lukowski,chrislukowski14@gmail.com,Media
Full Pass (March 7-16) - $40|40,Ellen,Kvarby,rsvpsterellen@gmail.com,Sony Music
Full Pass (March 7-16) - $40|40,Martin,Castillo,castillo_m20@yahoo.com,Media
Full Pass (March 7-16) - $40|40,Jo Anthony,Quinones,m_castillo20@hotmail.com,Media
Full Pass (March 7-16) - $40|40,callie,richmond,callierichmondsxsw@gmail.com,Media
Full Pass (March 7-16) - $40|40,Marvin,Barksdale,Marvin@millennialmanagement.com,The Millennial Group
Full Pass (March 7-16) - $40|40,Janette,De Villiers,janette@groundglass.co.za,Producer
Full Pass (March 7-16) - $40|40,Thomas,Ferreira,a187@mac.com,Producer
Music Pass (March 11-16) - $30|30,Amanda,Basto,amanduhbasto@gmail.com,Media
Music Pass (March 11-16) - $30|30,Rene,Lumampao,lumampaorene@gmail.com,Media
Music Pass (March 11-16) - $30|30,Jane,McConnell,janeinma.sxsw@gmail.com,Media
Music Pass (March 11-16) - $30|30,xavier,hatcher,xluger1919@gmail.com,legend camp
Music Pass (March 11-16) - $30|30,Blair,Stormon,blair.stormon@outlook.com,Media
Music Pass (March 11-16) - $30|30,Ryan,Futch,ffrmaster1@gmail.com,Other
Music Pass (March 11-16) - $30|30,Elisa,Suarez,thisonesforyouej@gmail.com,Media
Music Pass (March 11-16) - $30|30,Reisha,Lacey,reishalacey1@gmail.com,Media
Music Pass (March 11-16) - $30|30,Renee,Dixon,Austwirler@gmail.com,Media
Music Pass (March 11-16) - $30|30,Gary,Dixon,Ausgrd@gmail.com,Media
Music Pass (March 11-16) - $30|30,Donna,Newton,dnewton98@yahoo.com,Tech company exec
Music Pass (March 11-16) - $30|30,Stephen Harry,Rhodes,stephen.rhodes2116@sky.com,Media
Music Pass (March 11-16) - $30|30,Ellie,Hitchin,ellie.hitchin@btinternet.com,Media
Music Pass (March 11-16) - $30|30,Kelli,Gross,kg@kelligross.com,None
Music Pass (March 11-16) - $30|30,Daniel,Aranda,da@kelligross.com,None
Music Pass (March 11-16) - $30|30,Jessie,Criswell,Sxswcriswell@yahoo.com,Media
Music Pass (March 11-16) - $30|30,Bob,Kelley,Beekay20@mac.com,Media
Music Pass (March 11-16) - $30|30,Andrew,Cisewski,andrewcisewski@gmail.com,fan
Music Pass (March 11-16) - $30|30,greg,cisewski,greg.cisewski@gmail.com,Media
Music Pass (March 11-16) - $30|30,Drew,Eddy,drew.r.eddy@gmail.com,Media
Music Pass (March 11-16) - $30|30,Stephanie,Fletcher,cryptodira@gmail.com,Media
Music Pass (March 11-16) - $30|30,Beau,Chandler,sxswbeau@gmail.com,Media
Music Pass (March 11-16) - $30|30,Jason,Salvo,sxswjasons@gmail.com,Media
Music Pass (March 11-16) - $30|30,Michael,Gleason,Gleason.SXSW@gmail.com,Media
Music Pass (March 11-16) - $30|30,Elliott,Size,Size.SXSW@gmail.com,Media
Music Pass (March 11-16) - $30|30,Dorothy,Walsh,dewalsh11@gmail.com,Media
Music Pass (March 11-16) - $30|30,Kevin,Blasko,kevinblaskosxsw@gmail.com,Media
Music Pass (March 11-16) - $30|30,Leora,Lugasy,llugasy@gmail.com,Media
Music Pass (March 11-16) - $30|30,Adam,Powell,ajpowell4@gmail.com,Media
Music Pass (March 11-16) - $30|30,Daniel,Khamir,daniel@360insmark.com,Media
Music Pass (March 11-16) - $30|30,Karen,Reznik,karenla73@gmail.com,Media
Music Pass (March 11-16) - $30|30,George,Long,george_long@swbell.net,Media
Music Pass (March 11-16) - $30|30,Caleb,Schiavoni,cssxsw@outlook.com,Keller Williams
Music Pass (March 11-16) - $30|30,Dave,Raggio,raggida@gmail.com,Media
Music Pass (March 11-16) - $30|30,Justin,Yee,yeesxsw@gmail.com,Media
Music Pass (March 11-16) - $30|30,Marc,Dekirmandjian,Indapad@aol.com,Producer
Music Pass (March 11-16) - $30|30,Karthik,Sundar,sxswkarth@gmail.com,Media
Music Pass (March 11-16) - $30|30,Dave,Northrop,dbnorthrop@hotmail.com,Media
Music Pass (March 11-16) - $30|30,Suzanne,Lupovici,Suzanne.Lupovici@gmail.com,Media
Music Pass (March 11-16) - $30|30,Carmel,Pedatella,wercarmat@gmail.com,Media
Music Pass (March 11-16) - $30|30,Matthew,Reitano,matthew.reitano.sxsw@gmail.com,Media
Music Pass (March 11-16) - $30|30,Mike,Klein,Mklein@kleinproducts.com,Media
Music Pass (March 11-16) - $30|30,Maya,Lugasy,mayalugasy1234@gmail.com,Media
Music Pass (March 11-16) - $30|30,River,Myers,river@salacioussound.com,Media
Music Pass (March 11-16) - $30|30,Mark,VanMiddlesworth,mvanmidd@mit.edu,"Media, Band"
Music Pass (March 11-16) - $30|30,Vanessa,Martucci,vanessasxsw2014@gmail.com,Media
Music Pass (March 11-16) - $30|30,Alison,O'Neill,alisononeillsxsw@gmail.com,Media
Music Pass (March 11-16) - $30|30,David,Kurtz,Davemkurtz@gmail.com,Media
Music Pass (March 11-16) - $30|30,Jared,Cuevas,jaredcuevas@yahoo.com,Media
Music Pass (March 11-16) - $30|30,David,Pugh,formula1@yahoo.com,Media
Music Pass (March 11-16) - $30|30,Christine,Pugh,formula1@gmail.com,Media
Music Pass (March 11-16) - $30|30,Jeff,Feldman,jeffrey.w.feldman@gmail.com,Media
Music Pass (March 11-16) - $30|30,Amanda,Griffin,amandammgriffin@gmail.com,Media
Music Pass (March 11-16) - $30|30,Heather,Timmis,heathersxsw14@gmail.com,Media
Music Pass (March 11-16) - $30|30,Chelsea,Leasure,chelsea.n.leasure@gmail.com,Media
Music Pass (March 11-16) - $30|30,Caitlin,Ruane,cruane@needhamco.com,Media
Music Pass (March 11-16) - $30|30,desiree,yearby,dezzatsxsw@gmail.com,Aflylove.com
Music Pass (March 11-16) - $30|30,Regan,Dittmar,regandawnsxsw@gmail.com,Media
Music Pass (March 11-16) - $30|30,paul,ford,paulxford@gmail.com,Media
Music Pass (March 11-16) - $30|30,Anna,McClain,annamsxsw@gmail.com,Media
Music Pass (March 11-16) - $30|30,Chris,Minutello,chrismsxsw@gmail.com,Media
Music Pass (March 11-16) - $30|30,Christopher,Maranon,Christopher.maranon@ctx.edu,Media
Music Pass (March 11-16) - $30|30,hendrik,egberts,kostijn@hotmail.com,Media
Music Pass (March 11-16) - $30|30,Christina,Kuhlmann,christina.thissongslaps@gmail.com,Media
Music Pass (March 11-16) - $30|30,James,Thomas,snpaisgoodbeer@yahoo.com,Media
Music Pass (March 11-16) - $30|30,MEGAN,WILBURN,meganatsxsw@yahoo.com,Music Love